{
  "cloudflare_api_key": "",
  "gitlab_kubernetes_agent_token": "",
  "google_cloudflare_oauth_client_id": "",
  "google_cloudflare_oauth_client_secret": "",
  "prowlarr_api_key": "",
  "radarr_api_key": "",
  "sonarr_api_key": "",
  "traefik_basic_auth_password": "",
  "traefik_basic_auth_user": ""
}
